{
    "cards":[
        {
            "title": "With the raft to the wreck",
			"greenHazardValue":0,
			"yellowHazardValue":1,
			"redHazardValue":3,
			"freeCardsValue":1,
			"robinsonCards": ["RC6","RC7","RC8","RC9","RC10","RC11","RC12"],
			"cardID":"HC1"
        },
		{
            "title": "Exploring the island",
			"greenHazardValue":1,
			"yellowHazardValue":3,
			"redHazardValue":6,
			"freeCardsValue":2,
			"robinsonCards": ["RC18","RC19","RC20","RC21","RC22","RC26"],
			"cardID":"HC2"
        },
		{
            "title": "Further exploring the island",
			"greenHazardValue":2,
			"yellowHazardValue":5,
			"redHazardValue":8,
			"freeCardsValue":3,
			"robinsonCards": ["RC13","RC14","RC15","RC16","RC17","RC18"],
			"cardID":"HC3"
        },
		{
            "title": "Cannibals",
			"greenHazardValue":5,
			"yellowHazardValue":9,
			"redHazardValue":14,
			"freeCardsValue":5,
			"robinsonCards": ["RC28"],
			"cardID":"HC4"
        },
		{
            "title": "Wild animals",
			"greenHazardValue":4,
			"yellowHazardValue":7,
			"redHazardValue":11,
			"freeCardsValue":4,
			"robinsonCards": ["RC23","RC24","RC25","RC27"],
			"cardID":"HC5"
        }
    ]
}
